…
Pull out the Blue crab data only:

    bc.PA.shp$BC_Occurre[bc.PA.shp$BC_Occurre >0] <- 1

    bc.PA.shp <- subset(bc.PA.shp, select = c(BC_Occurre, geometry))

    bc.PA.shp

    ## Simple feature collection with 231 features and 1 field
    ## Geometry type: POINT
    ## Dimension:     XYZ
    ## Bounding box:  xmin: -73.3215 ymin: 40.6296 xmax: -72.8842 ymax: 40.75559
    ## z_range:       zmin: 0 zmax: 1
    ## Geodetic CRS:  WGS 84
    ## # A tibble: 231 × 2
    ##    BC_Occurre                 geometry
    ##         <dbl>              <POINT [°]>
    ##  1          0  Z (-73.2244 40.66525 0)
    ##  2          0 Z (-73.20134 40.69725 0)
    ##  3          0 Z (-73.19212 40.66784 0)
    ##  4          0  Z (-73.15126 40.6636 0)
    ##  5          0 Z (-73.12622 40.68128 0)
    ##  6          0 Z (-73.10766 40.67509 0)
    ##  7          1   Z (-73.085 40.71424 1)
    ##  8          0 Z (-73.06582 40.69299 0)
    ##  9          1 Z (-73.03204 40.69015 1)
    ## 10          1    Z (-73.025 40.7424 1)
    ## # … with 221 more rows
…
